{
    "name": "main-form",
    "action": "/",
    "method": "POST",
    "fields": [
        {
            "type":         "text",
            "customValidateFunction":   "FieldTests::nom",
            "name":         "nom",
            "value":        "Macrone",
            "label":        "Nom",
            "required":     true,
            "title":        "Doit commencer par une lettre et être composé de lettres, tirets, espaces, apostrophes, virgules et/ou points",
            "placeholder":  "Dupont",
            "oninput":      "validate(this)",
            "style":        "text-transform: uppercase;"
        }, {
            "type":         "text",
            "customValidateFunction":   "FieldTests::prenoms",
            "name":         "prenoms",
            "label":        "Prénoms",
            "sublabel":     "séparés par des espaces",
            "title":        "Doit commencer par une lettre et être composé de lettres, tirets, espaces, apostrophes, virgules et/ou points",
            "placeholder":  "Dominique Blaise",
            "oninput":      "validate(this)"
        }, {
            "type":         "text",
            "customValidateFunction":   "FieldTests::codePostalResidence",
            "name":         "codePostalResidence",
            "value":        "45000",
            "label":        "Code postal",
            "sublabel":     "de résidence",
            "required":     true,
            "title":        "Doit être un code postal français valide",
            "placeholder":  "26200",
            "pattern":      "[0-9]*",
            "inputmode":    "numeric",
            "oninput":      "validate(this)"
        }, {
            "type":         "date",
            "customValidateFunction":   "FieldTests::dateNaissance",
            "name":         "dateNaissance",
            "value":        "1970-01-01",
            "label":        "Date de naissance",
            "required":     true,
            "title":        "Doit être une date précédent la date du jour",
            "placeholder":  "2001-09-03",
            "oninput":      "validate(this)"
        }, {
            "type":         "email",
            "name":         "adresseEmail",
            "value":        "noreply@zawazawa.team",
            "label":        "Adresse e-mail",
            "required":     true,
            "title":        "Doit être une adresse e-mail valide",
            "placeholder":  "adresse@mail.com"
        }, {
            "type":         "range",
            "name":         "note",
            "value":        3,
            "label":        "Note",
            "sublabel":     "sur 5",
            "min":          1,
            "max":          5
        }, {
            "type":         "textarea",
            "name":         "commentaire",
            "value":        "Wow, cet élève mérite 20/20 !\nQuoi que, son code est bizarre, par exemple, la méthode \"addFieldFromDecodedJson\" de Form.php.\nDisons plutôt 19 !",
            "label":        "Commentaire",
            "rows":         6
        }, {
            "type":         "checkbox",
            "name":         "consentement",
            "label":        "Je concens à l'utilisation de mes données par diverses personnes et organismes potentiellements douteux",
            "required":     true,
            "title":        "Doit être coché",
            "checked":      true
        }
    ]
}